The Data Science process
…
```r
library(readr) 
```

```
## Warning: package 'readr' was built under R version 4.0.5
```

```r
table <- read_csv('Week 4 data/iris.csv')
print(table)
```

```
## # A tibble: 150 × 5
##    Sepal.Length Sepal.Width Petal.Length Petal.Width Species
##           <dbl>       <dbl>        <dbl>       <dbl> <chr>  
##  1          5.1         3.5          1.4         0.2 setosa 
##  2          4.9         3            1.4         0.2 setosa 
##  3          4.7         3.2          1.3         0.2 setosa 
##  4          4.6         3.1          1.5         0.2 setosa 
##  5          5           3.6          1.4         0.2 setosa 
##  6          5.4         3.9          1.7         0.4 setosa 
##  7          4.6         3.4          1.4         0.3 setosa 
##  8          5           3.4          1.5         0.2 setosa 
##  9          4.4         2.9          1.4         0.2 setosa 
## 10          4.9         3.1          1.5         0.1 setosa 
## # … with 140 more rows
```
…
# *Import* excel to `R`

We can import the .xlsx using the `readxl` package.
You may need to run `install.packages('readxl')` if you haven't already.

```r
library(readxl) 

table_excel <- read_excel('Week 4 data/iris.xlsx')
print(table_excel)
```

```
## # A tibble: 150 × 5
##    Sepal.Length Sepal.Width Petal.Length Petal.Width Species
##           <dbl>       <dbl>        <dbl>       <dbl> <chr>  
##  1          5.1         3.5          1.4         0.2 setosa 
##  2          4.9         3            1.4         0.2 setosa 
##  3          4.7         3.2          1.3         0.2 setosa 
##  4          4.6         3.1          1.5         0.2 setosa 
##  5          5           3.6          1.4         0.2 setosa 
##  6          5.4         3.9          1.7         0.4 setosa 
##  7          4.6         3.4          1.4         0.3 setosa 
##  8          5           3.4          1.5         0.2 setosa 
##  9          4.4         2.9          1.4         0.2 setosa 
## 10          4.9         3.1          1.5         0.1 setosa 
## # … with 140 more rows
```
…
.small[
.pull-left[

```r
armies
```

```
## # A tibble: 48 × 5
##      lon   lat   size direction division
##    <dbl> <dbl>  <dbl> <chr>        <dbl>
##  1  24    54.9 340000 A                1
##  2  24.5  55   340000 A                1
##  3  25.5  54.5 340000 A                1
##  4  26    54.7 320000 A                1
##  5  27    54.8 300000 A                1
##  6  28    54.9 280000 A                1
##  7  28.5  55   240000 A                1
##  8  29    55.1 210000 A                1
##  9  30    55.2 180000 A                1
## 10  30.3  55.3 175000 A                1
## # … with 38 more rows
```
…
